{
    "rules": [
        {
            "rule-type": "selection",
            "rule-id": "1",
            "rule-name": "1",
            "object-locator": {
                "schema-name": "dev_WDTimeSeries",
                "table-name": "benchmark"
            },
            "rule-action": "include"
        }
    ]
}
